<?xml version="1.0" encoding="UTF-8" standalone="no"?>
<svg
   xmlns:dc="http://purl.org/dc/elements/1.1/"
   xmlns:cc="http://creativecommons.org/ns#"
   xmlns:rdf="http://www.w3.org/1999/02/22-rdf-syntax-ns#"
   xmlns:svg="http://www.w3.org/2000/svg"
   xmlns="http://www.w3.org/2000/svg"
   xmlns:sodipodi="http://sodipodi.sourceforge.net/DTD/sodipodi-0.dtd"
   xmlns:inkscape="http://www.inkscape.org/namespaces/inkscape"
   height="512px"
   id="Layer_1"
   style="enable-background:new 0 0 512 512;"
   version="1.1"
   viewBox="0 0 512 512"
   width="512px"
   xml:space="preserve"
   inkscape:version="0.91 r13725"
   sodipodi:docname="upload.svg"><metadata
     id="metadata9"><rdf:RDF><cc:Work
         rdf:about=""><dc:format>image/svg+xml</dc:format><dc:type
           rdf:resource="http://purl.org/dc/dcmitype/StillImage" /><dc:title></dc:title></cc:Work></rdf:RDF></metadata><defs
     id="defs7" /><sodipodi:namedview
     pagecolor="#ffffff"
     bordercolor="#666666"
     borderopacity="1"
     objecttolerance="10"
     gridtolerance="10"
     guidetolerance="10"
     inkscape:pageopacity="0"
     inkscape:pageshadow="2"
     inkscape:window-width="1064"
     inkscape:window-height="480"
     id="namedview5"
     showgrid="false"
     inkscape:zoom="0.4609375"
     inkscape:cx="429.55932"
     inkscape:cy="256"
     inkscape:window-x="75"
     inkscape:window-y="34"
     inkscape:window-maximized="0"
     inkscape:current-layer="Layer_1" /><path
     d="m 418.4,221.37143 c 0,-1.37143 0.22857,-2.74286 0.22857,-4.11429 0,-74.28571 -59.2,-134.399997 -132.22857,-134.399997 -52.68571,0 -97.94286,31.314287 -119.2,76.571427 C 157.94286,154.74286 147.54286,152 136.57143,152 c -33.71429,0 -61.82857,25.02857 -67.2,57.71429 C 28.914286,223.65714 0,262.4 0,308 0,365.37143 45.828571,412 102.28571,412 l 117.14286,0 0,-91.42857 -55.08571,0 L 256,224.91429 l 91.65714,95.54285 -55.08571,0 0,91.42857 126.05714,0 c 51.65714,0 93.37143,-42.85714 93.37143,-95.31428 0,-52.45714 -41.94286,-95.08572 -93.6,-95.2 z"
     id="path3"
     inkscape:connector-curvature="0" /></svg>